{	
	"success":true,
    "subjectListPage":{
        "pageNo": 1,
        "pageSize":10,
        "totalPages":2,
        "totalSize":30,
        "rows": [
            {
                "subjectId":"1",
                "subjectPic": "/image/look_something/2C403438-C133-4546-941B-E53550AB1097.png",
                "subjectPicName":"颜值最高的手机大集合",
                "subjectAttr":"如果你无法简介的表达你的想法，那只能说明你还不够了解它",
                "subjectStoreName":"天鹅湖万达店",
                "subjectTime":"06-12",
                "subjectNew":true,
                "subjectRecommend":false,
                "subjectType":"tuwen"
            },
            {
                "subjectId":"2",
                "subjectPic": "/image/look_something/8E4D888E-3338-44EF-9EBC-8A68F802826E.png",
                "subjectPicName":"魅族Flyme 6 你的新体验哈哈啊哈哈",
                "subjectAttr":"如果你无法简介的表达你的想法，那只能说明你还不够了解它",
                "subjectStoreName":"芜湖路万达店",
                "subjectTime":"04-20",
                "subjectNew":false,
                "subjectRecommend":true,
                "subjectType":"shipin"
            },
            {
                "subjectId":"3",
                "subjectPic": "/image/look_something/2C403438-C133-4546-941B-E53550AB1097.png",
                "subjectPicName":"颜值最高的手机大集合",
                "subjectAttr":"如果你无法简介的表达你的想法，那只能说明你还不够了解它",
                "subjectStoreName":"天鹅湖万达店",
                "subjectTime":"06-12",
                "subjectNew":false,
                "subjectRecommend":false,
                "subjectType":"tuwen"
            },
            {
                "subjectId":"4",
                "subjectPic": "/image/look_something/8E4D888E-3338-44EF-9EBC-8A68F802826E.png",
                "subjectPicName":"魅族Flyme 6 你的新体验哈哈啊哈哈",
                "subjectAttr":"如果你无法简介的表达你的想法，那只能说明你还不够了解它",
                "subjectStoreName":"芜湖路万达店",
                "subjectTime":"04-20",
                "subjectNew":false,
                "subjectRecommend":false,
                "subjectType":"shipin"
            }
        ]
    }
}