{	
	"success":true,
    "storeListPage":{
        "pageNo": 1,
        "pageSize":10,
        "totalPages":2,
        "totalSize":30,
        "rows": [
            {
                "storeId":"1",
                "storeCover": "/image/find_store/E403A166-E019-4341-AE54-7370F3C65A24.png",
                "distanceMe":"1",
                "collected":false,
                "storeName":"芜湖路万达店",
                "storeStr":"合肥天鹅湖万达广场坐落在十年新城，周边社区、高档写字楼鳞次栉比哈哈哈哈啊。",
                "recommendedConsultants":[
                    {
                        "consultantFace":"/image/find_store/A1FE15D5-1018-422D-9197-BA907AB257BB.png",
                        "consultantName":"丁雯雯"
                    },
                    {
                        "consultantFace":"/image/find_store/9C38352A-FD8C-4DFE-95A6-A7D5EDBD6DAC.png",
                        "consultantName":"朱阳"
                    },
                    {
                        "consultantFace":"/image/find_store/A1FE15D5-1018-422D-9197-BA907AB257BB.png",
                        "consultantName":"李欣1"
                    },
                    {
                        "consultantFace":"/image/find_store/CC506F1C-AC3C-486B-ABFC-E959EF4DCD09.png",
                        "consultantName":"王思"
                    },
                    {
                        "consultantFace":"/image/find_store/A1FE15D5-1018-422D-9197-BA907AB257BB.png",
                        "consultantName":"李欣2"
                    },
                    {
                        "consultantFace":"/image/find_store/A1FE15D5-1018-422D-9197-BA907AB257BB.png",
                        "consultantName":"李欣3"
                    },
                    {
                        "consultantFace":"/image/find_store/A1FE15D5-1018-422D-9197-BA907AB257BB.png",
                        "consultantName":"李欣4"
                    }
                ]
            },
            {
                "storeId":"2",
                "storeCover": "/image/find_store/E403A166-E019-4341-AE54-7370F3C65A24.png",
                "distanceMe":"0.5",
                "collected":true,
                "storeName":"芜湖路万达店",
                "storeStr":"合肥天鹅湖万达广场坐落在十年新城，周边社区、高档写字楼鳞次栉比哈哈哈哈啊。",
                "recommendedConsultants":[
                    {
                        "consultantFace":"/image/find_store/A1FE15D5-1018-422D-9197-BA907AB257BB.png",
                        "consultantName":"丁雯雯"
                    },
                    {
                        "consultantFace":"/image/find_store/9C38352A-FD8C-4DFE-95A6-A7D5EDBD6DAC.png",
                        "consultantName":"朱阳"
                    },
                    {
                        "consultantFace":"/image/find_store/CC506F1C-AC3C-486B-ABFC-E959EF4DCD09.png",
                        "consultantName":"王思"
                    }
                ]
            },
            {
                "storeId":"3",
                "storeCover": "/image/find_store/E403A166-E019-4341-AE54-7370F3C65A24.png",
                "distanceMe":"1.5",
                "collected":true,
                "storeName":"芜湖路万达店",
                "storeStr":"合肥天鹅湖万达广场坐落在十年新城，周边社区、高档写字楼鳞次栉比哈哈哈哈啊。",
                "recommendedConsultants":[
                    {
                        "consultantFace":"/image/find_store/A1FE15D5-1018-422D-9197-BA907AB257BB.png",
                        "consultantName":"丁雯雯"
                    },
                    {
                        "consultantFace":"/image/find_store/CC506F1C-AC3C-486B-ABFC-E959EF4DCD09.png",
                        "consultantName":"王思"
                    }
                ]
            }
        ]
    }
}