{	
	"success":true,
    "thumbUpListPage":{
        "pageNo": 1,
        "pageSize":10,
        "totalPages":2,
        "totalSize":30,
        "rows": [
            {
                "thumbUpNoteId":"1",
                "thumbUpNoteTitle": "1坚果Pro测评：渲染图很丰满配得到的",
                "thumbUpNum":102
            },
            {
                "thumbUpNoteId":"2",
                "thumbUpNoteTitle": "2坚果Pro测评：渲染图很丰满配得到的",
                "thumbUpNum":132
            },
            {
                "thumbUpNoteId":"3",
                "thumbUpNoteTitle": "3坚果Pro测评：渲染图很丰满配得到的",
                "thumbUpNum":142
            },
            {
                "thumbUpNoteId":"4",
                "thumbUpNoteTitle": "4坚果Pro测评：渲染图很丰满配得到的",
                "thumbUpNum":152
            },
            {
                "thumbUpNoteId":"5",
                "thumbUpNoteTitle": "5坚果Pro测评：渲染图很丰满配得到的",
                "thumbUpNum":152
            },
            {
                "thumbUpNoteId":"6",
                "thumbUpNoteTitle": "6坚果Pro测评：渲染图很丰满配得到的",
                "thumbUpNum":152
            },
            {
                "thumbUpNoteId":"7",
                "thumbUpNoteTitle": "7坚果Pro测评：渲染图很丰满配得到的",
                "thumbUpNum":152
            },
            {
                "thumbUpNoteId":"8",
                "thumbUpNoteTitle": "8坚果Pro测评：渲染图很丰满配得到的",
                "thumbUpNum":152
            },
            {
                "thumbUpNoteId":"9",
                "thumbUpNoteTitle": "9坚果Pro测评：渲染图很丰满配得到的",
                "thumbUpNum":152
            },
            {
                "thumbUpNoteId":"10",
                "thumbUpNoteTitle": "10坚果Pro测评：渲染图很丰满配得到的",
                "thumbUpNum":152
            }
        ]
    }
}